<svg xmlns="http://www.w3.org/2000/svg" width="399.04745" height="89.002174">
  <defs>
    <clipPath id="a">
      <path d="M0 95.175h426.724V0H0v95.175z"/>
    </clipPath>
  </defs>
  <g clip-path="url(#a)" transform="matrix(0.93514237,0,0,-0.93514237,-2.2939343e-4,89.002175)">
    <path fill="#a92d38" d="M157.0191 36.744l8.247 26.613 8.247-26.613h-16.494zm20.294 47.621c-2.139 6.665-6.151 9.997-12.047 9.997-5.94 0-9.952-3.332-12.036-9.997L127.2181 0h18.355l6.464 20.607h26.391L184.8141 0h18.5l-26.001 84.365zm8.4704 9.9969v-16.137h20.283V-.0001h17.765v78.225h20.283v16.137h-58.331zm70.7463-57.6179l8.247 26.613 8.247-26.613h-16.494zm20.283 47.621c-2.128 6.665-6.14 9.997-12.036 9.997-5.951 0-9.963-3.332-12.036-9.997L226.7288 0h18.355l6.464 20.607h26.38L284.3138 0h18.511l-26.012 84.365zm62.7894-44.2442c6.999 2.251 12.783 6.018 17.363 11.278 4.625 5.316 6.944 11.19 6.944 17.631 0 6.932-2.954 12.884-8.849 17.832-5.896 5.004-12.65 7.5-20.284 7.5h-20.283c-3.076 0-5.751-1.036-8.035-3.109-2.274-2.073-3.411-4.48-3.411-7.222V-.0002h17.754v78.225h13.931c2.964 0 5.606-1.059 7.935-3.177 2.318-2.117 3.477-4.502 3.477-7.166 0-3.867-2.196-7.132-6.587-9.796-2.084-1.036-4.101-2.062-6.085-3.098-1.972-1.036-4-2.073-6.073-3.109-4.391-2.931-6.598-6.709-6.598-11.346 0-2.485 1.56-5.906 4.67-10.275l21.275-30.258h20.729l-27.873 40.121zM373.415 0h17.765v94.362h-17.765V0zm31.29 18.5436c-.501.257-.972.39-1.412.39-.767 0-1.443-.421-2.016-1.284-.583-.801-.869-1.767-.869-2.887V-.0004h4.502v12.144L426.724.7396v6.287l-22.019 11.517zm16.9234 9.3892c-.859-.863-1.86-1.288-2.989-1.288-.936 0-1.77.515-2.514 1.546-.731 1.03-1.103 2.202-1.103 3.516 0 1.301.372 2.46 1.103 3.49.744 1.03 1.578 1.546 2.514 1.546 1.129 0 2.13-.425 2.989-1.288.962-.941 1.45-2.19 1.45-3.748 0-1.533-.488-2.795-1.45-3.774m-10.78.482c-.685-.965-1.477-1.447-2.366-1.447-1.032 0-1.957.398-2.785 1.206-.901.916-1.345 2.097-1.345 3.532 0 1.459.444 2.628 1.345 3.508.828.808 1.753 1.205 2.785 1.205.889 0 1.681-.482 2.366-1.446.696-.965 1.044-2.05 1.044-3.267 0-1.23-.348-2.327-1.044-3.291m13.686 10.481c-1.463 2.054-3.182 3.092-5.157 3.092-2.363 0-4.297-1.027-5.801-3.072-1.443 2.045-3.162 3.072-5.147 3.072h-.634c-1.975 0-3.694-1.038-5.168-3.092-1.483-2.045-2.22-4.449-2.22-7.192 0-2.743.737-5.147 2.22-7.212 1.474-2.055 3.193-3.092 5.168-3.092 2.373 0 4.297 1.037 5.781 3.092 1.442-2.055 3.161-3.092 5.146-3.092h.655c1.975 0 3.694 1.037 5.157 3.092 1.463 2.086 2.19 4.49 2.19 7.212 0 2.712-.727 5.106-2.19 7.192m-10.9686 10.2764c-4.104 0-7.435 3.345-7.435 7.466s3.331 7.465 7.435 7.465c4.104 0 7.435-3.344 7.435-7.465s-3.331-7.466-7.435-7.466m0 19.424c-6.579 0-11.91-5.353-11.91-11.958 0-6.606 5.331-11.959 11.91-11.959s11.91 5.353 11.91 11.959c0 6.605-5.331 11.958-11.91 11.958m0 6.3418c-4.104 0-7.435 3.345-7.435 7.466s3.331 7.465 7.435 7.465c4.104 0 7.435-3.344 7.435-7.465s-3.331-7.466-7.435-7.466m0 19.424c-6.579 0-11.91-5.353-11.91-11.958 0-6.606 5.331-11.959 11.91-11.959s11.91 5.353 11.91 11.959c0 6.605-5.331 11.958-11.91 11.958"/>
    <path fill="#6c4d9d" fill-rule="evenodd" d="M65.22.312H52.704v9.963H65.22V.312zm52.9153 9.9634V.0444c-4.993-.212-9.852.446-14.544 2.017-4.725 1.583-9.083 3.778-12.916 6.776-.602.468-1.215.948-1.806 1.438h29.266zm-88.745 0c-4.023-3.399-8.637-5.996-13.764-7.835-4.692-1.671-9.517-2.541-14.555-2.396H.0023c0 3.477-.012 6.865.022 10.231h29.366z"/>
    <path fill="#3e6eb2" fill-rule="evenodd" d="M41.8723 25.4544c-1.683-3.12-3.689-6.074-6.13-8.804-1.861-2.084-3.766-4.146-5.895-5.996-.156-.134-.301-.256-.457-.379H.0243c-.011.947 0 1.883.011 2.831 0 .278.39.758.657.802 3.957.647 7.713 1.861 11.156 3.7 2.742 1.471 5.417 3.121 7.891 4.948 1.237.903 2.407 1.873 3.521 2.898h18.612zm76.263-11.7131v-3.466h-29.266c-1.103.88-2.173 1.783-3.176 2.742-3.054 2.953-5.639 6.241-7.846 9.785-.546.869-1.059 1.761-1.549 2.652h18.678c.792-.769 1.605-1.516 2.463-2.207 5.751-4.68 12.315-8.024 19.983-9.316.245-.034.479-.123.713-.19M65.22 10.275H52.704v15.179H65.22V10.275z"/>
    <path fill="#35afdf" fill-rule="evenodd" d="M65.22 25.454H52.704V40.31H65.22V25.454zm29.7567.0004h-18.678c-1.572 2.82-2.876 5.751-3.912 8.793-.68 2.006-1.293 4.012-1.761 6.063h13.128c1.795-3.622 3.979-7.055 6.776-10.153 1.438-1.594 2.887-3.21 4.447-4.703M47.5004 40.3103c-.613-2.909-1.538-5.74-2.664-8.515-.88-2.173-1.85-4.29-2.964-6.341h-18.612c2.764 2.485 5.16 5.294 7.256 8.336 1.448 2.107 2.797 4.269 3.945 6.52h13.039z"/>
    <path fill="#9ecf81" fill-rule="evenodd" d="M48.9269 52.5694c0-.557-.011-1.114-.011-1.672-.022-2.819-.602-5.65-1.026-8.459-.111-.713-.234-1.426-.39-2.128h-13.039c.747 1.471 1.404 2.975 1.95 4.525.892 2.552 1.672 5.137 2.397 7.734h10.119zM65.22 40.31H52.704v12.259H65.22V40.31zm18.534.0003H70.626c-.368 1.549-.636 3.12-.781 4.703-.234 2.519-.49 5.037-.601 7.556h9.941c.602-2.585 1.504-5.104 2.496-7.612.624-1.571 1.315-3.131 2.073-4.647"/>
    <path fill="#fdd255" fill-rule="evenodd" d="M48.9826 68.5397c0-5.327-.022-10.654-.056-15.97h-10.119c.301 1.092.591 2.173.869 3.265.457 1.75.68 3.6.702 5.405.034 2.43.056 4.87.078 7.3h8.526zm30.2021-15.9703h-9.941c-.022.635-.045 1.271-.045 1.906-.022 4.692-.033 9.372-.033 14.064h8.358c0-1.226.023-2.452.034-3.666.044-3.065.646-6.119 1.048-9.172.133-1.059.334-2.096.579-3.132M65.22 52.569H52.704v15.97H65.22v-15.97z"/>
    <path fill="#f89f5c" fill-rule="evenodd" d="M65.22 68.54H52.704v12.638H65.22V68.54zm12.3041-.0003h-8.359c-.011 4.213-.011 8.425-.011 12.638h8.337c-.012-4.224-.012-8.436.033-12.638M48.9826 81.1778v-12.638h-8.526c.034 4.213.067 8.425.089 12.638h8.437z"/>
    <path fill="#ee3d57" fill-rule="evenodd" d="M48.9715 93.7267c0-4.19 0-8.37.011-12.549h-8.436c.033 4.358.055 8.715.078 13.073v.657h8.347v-1.181zm28.5415 1.1925v-1.126c0-4.201-.022-8.414-.022-12.615h-8.337c.012 4.168.012 8.325.012 12.493v1.248h8.347zm-24.808.2558h12.516V81.177H52.705v13.998z"/>
  </g>
</svg>